…
<!-------------------------- Start your work below ---------------------------->

I am now exploring the 4 datasets. To do so, I am using the print(),
glimpse(), dim(), and class() functions on all dataset. I want to see
the number of rows and columns, the variables in each dataset, and have
an idea of the overall structure of the data.

Here, I explore the apt_buildings dataset

``` r
print(apt_buildings)
```

    ## # A tibble: 3,455 × 37
    ##       id air_c…¹ ameni…² balco…³ barri…⁴ bike_…⁵ exter…⁶ fire_…⁷ garba…⁸ heati…⁹
    ##    <dbl> <chr>   <chr>   <chr>   <chr>   <chr>   <chr>   <chr>   <chr>   <chr>  
    ##  1 10359 NONE    Outdoo… YES     YES     0 indo… NO      YES     YES     HOT WA…
    ##  2 10360 NONE    Outdoo… YES     NO      0 indo… NO      YES     YES     HOT WA…
    ##  3 10361 NONE    <NA>    YES     NO      Not Av… NO      YES     NO      HOT WA…
    ##  4 10362 NONE    <NA>    YES     YES     Not Av… YES     YES     NO      HOT WA…
    ##  5 10363 NONE    <NA>    NO      NO      12 ind… NO      YES     NO      HOT WA…
    ##  6 10364 NONE    <NA>    NO      NO      Not Av… <NA>    YES     NO      HOT WA…
    ##  7 10365 NONE    <NA>    NO      YES     Not Av… NO      YES     NO      HOT WA…
    ##  8 10366 CENTRA… Indoor… YES     NO      Not Av… NO      YES     YES     HOT WA…
    ##  9 10367 NONE    <NA>    YES     YES     0 indo… NO      YES     YES     ELECTR…
    ## 10 10368 NONE    Indoor… YES     YES     Not Av… NO      YES     NO      HOT WA…
    ## # … with 3,445 more rows, 27 more variables: intercom <chr>,
    ## #   laundry_room <chr>, locker_or_storage_room <chr>, no_of_elevators <dbl>,
    ## #   parking_type <chr>, pets_allowed <chr>, prop_management_company_name <chr>,
    ## #   property_type <chr>, rsn <dbl>, separate_gas_meters <chr>,
    ## #   separate_hydro_meters <chr>, separate_water_meters <chr>,
    ## #   site_address <chr>, sprinkler_system <chr>, visitor_parking <chr>,
    ## #   ward <chr>, window_type <chr>, year_built <dbl>, year_registered <dbl>, …
…
    ## [1] 3455   37

``` r
class(apt_buildings)
```

    ## [1] "tbl_df"     "tbl"        "data.frame"

Here, I explore the building_permits dataset

``` r
print(building_permits)
```

    ## # A tibble: 20,680 × 14
    ##    permit_n…¹ issue_date proje…² type_…³ address proje…⁴ build…⁵ build…⁶ appli…⁷
    ##    <chr>      <date>       <dbl> <chr>   <chr>   <chr>   <chr>   <chr>   <chr>  
    ##  1 BP-2016-0… 2017-02-01  0      Salvag… 4378 W… <NA>    <NA>     <NA>   Raffae…
    ##  2 BU468090   2017-02-01  0      New Bu… 1111 R… <NA>    <NA>     <NA>   MAX KE…
    ##  3 DB-2016-0… 2017-02-01  3.5 e4 Additi… 3732 W… <NA>    <NA>     <NA>   Peter …
    ##  4 DB-2017-0… 2017-02-01  1.5 e4 Additi… 88 W P… <NA>    Mercur… "88 W … Aaron …
    ##  5 DB452250   2017-02-01  1.81e5 New Bu… 492 E … <NA>    082016… "3559 … John H…
    ##  6 BP-2016-0… 2017-02-02  0      Salvag… 3332 W… <NA>    <NA>     <NA>   Shalin…
    ##  7 BP-2016-0… 2017-02-02  1.5 e4 Demoli… 2873 W… <NA>    <NA>     <NA>   Mike C…
    ##  8 BP-2016-0… 2017-02-02  0      Salvag… 3579 E… <NA>    <NA>     <NA>   Ricci …
    ##  9 BP-2016-0… 2017-02-02  6.5 e7 New Bu… 620 CA… <NA>    <NA>     <NA>   David …
    ## 10 BP-2016-0… 2017-02-02  2.5 e4 Additi… 1868 W… <NA>    RenBui… "1868 … Daniel…
    ## # … with 20,670 more rows, 5 more variables: applicant_address <chr>,
    ## #   property_use <chr>, specific_use_category <chr>, year <dbl>, bi_id <dbl>,
    ## #   and abbreviated variable names ¹​permit_number, ²​project_value,
    ## #   ³​type_of_work, ⁴​project_description, ⁵​building_contractor,
    ## #   ⁶​building_contractor_address, ⁷​applicant
…
    ## [1] 20680    14

``` r
class(building_permits)
```

    ## [1] "spec_tbl_df" "tbl_df"      "tbl"         "data.frame"

Here, I explore the parking_meters dataset

``` r
print(parking_meters)
```

    ## # A tibble: 10,032 × 22
    ##    meter_head  r_mf_9a…¹ r_mf_…² r_sa_…³ r_sa_…⁴ r_su_…⁵ r_su_…⁶ rate_…⁷ time_…⁸
    ##    <chr>       <chr>     <chr>   <chr>   <chr>   <chr>   <chr>   <chr>   <chr>  
    ##  1 Twin        $2.00     $4.00   $2.00   $4.00   $2.00   $4.00   <NA>    METER …
    ##  2 Pay Station $1.00     $1.00   $1.00   $1.00   $1.00   $1.00   $ .50   METER …
    ##  3 Twin        $1.00     $1.00   $1.00   $1.00   $1.00   $1.00   <NA>    METER …
    ##  4 Single      $1.00     $1.00   $1.00   $1.00   $1.00   $1.00   <NA>    METER …
    ##  5 Twin        $2.00     $1.00   $2.00   $1.00   $2.00   $1.00   <NA>    METER …
    ##  6 Twin        $2.00     $1.00   $2.00   $1.00   $2.00   $1.00   <NA>    METER …
    ##  7 Twin        $2.00     $3.00   $2.00   $3.00   $2.00   $3.00   <NA>    METER …
    ##  8 Single      $2.00     $3.00   $2.00   $3.00   $2.00   $3.00   <NA>    METER …
    ##  9 Twin        $4.00     $1.00   $4.00   $1.00   $4.00   $1.00   <NA>    METER …
    ## 10 Twin        $2.00     $1.00   $2.00   $1.00   $2.00   $1.00   <NA>    METER …
    ## # … with 10,022 more rows, 13 more variables: t_mf_9a_6p <chr>,
    ## #   t_mf_6p_10 <chr>, t_sa_9a_6p <chr>, t_sa_6p_10 <chr>, t_su_9a_6p <chr>,
    ## #   t_su_6p_10 <chr>, time_misc <chr>, credit_card <chr>, pay_phone <chr>,
    ## #   longitude <dbl>, latitude <dbl>, geo_local_area <chr>, meter_id <chr>, and
    ## #   abbreviated variable names ¹​r_mf_9a_6p, ²​r_mf_6p_10, ³​r_sa_9a_6p,
    ## #   ⁴​r_sa_6p_10, ⁵​r_su_9a_6p, ⁶​r_su_6p_10, ⁷​rate_misc, ⁸​time_in_effect
…
    ## [1] 10032    22

``` r
class(parking_meters)
```

    ## [1] "tbl_df"     "tbl"        "data.frame"

Here, I explore the vancouver_trees dataset

``` r
print(vancouver_trees)
```

    ## # A tibble: 146,611 × 20
    ##    tree_id civic_number std_st…¹ genus…² speci…³ culti…⁴ commo…⁵ assig…⁶ root_…⁷
    ##      <dbl>        <dbl> <chr>    <chr>   <chr>   <chr>   <chr>   <chr>   <chr>  
    ##  1  149556          494 W 58TH … ULMUS   AMERIC… BRANDON BRANDO… N       N      
    ##  2  149563          450 W 58TH … ZELKOVA SERRATA <NA>    JAPANE… N       N      
    ##  3  149579         4994 WINDSOR… STYRAX  JAPONI… <NA>    JAPANE… N       N      
    ##  4  149590          858 E 39TH … FRAXIN… AMERIC… AUTUMN… AUTUMN… Y       N      
    ##  5  149604         5032 WINDSOR… ACER    CAMPES… <NA>    HEDGE … N       N      
    ##  6  149616          585 W 61ST … PYRUS   CALLER… CHANTI… CHANTI… N       N      
    ##  7  149617         4909 SHERBRO… ACER    PLATAN… COLUMN… COLUMN… N       N      
    ##  8  149618         4925 SHERBRO… ACER    PLATAN… COLUMN… COLUMN… N       N      
    ##  9  149619         4969 SHERBRO… ACER    PLATAN… COLUMN… COLUMN… N       N      
    ## 10  149625          720 E 39TH … FRAXIN… AMERIC… AUTUMN… AUTUMN… N       N      
    ## # … with 146,601 more rows, 11 more variables: plant_area <chr>,
    ## #   on_street_block <dbl>, on_street <chr>, neighbourhood_name <chr>,
    ## #   street_side_name <chr>, height_range_id <dbl>, diameter <dbl>, curb <chr>,
    ## #   date_planted <date>, longitude <dbl>, latitude <dbl>, and abbreviated
    ## #   variable names ¹​std_street, ²​genus_name, ³​species_name, ⁴​cultivar_name,
    ## #   ⁵​common_name, ⁶​assigned, ⁷​root_barrier
…
``` r
parking_meters %>%
  select(c(r_mf_9a_6p, credit_card, pay_phone, geo_local_area)) %>%
  print(n = 50)
```

    ## # A tibble: 10,032 × 4
    ##    r_mf_9a_6p credit_card pay_phone geo_local_area    
    ##    <chr>      <chr>       <chr>     <chr>             
    ##  1 $2.00      No          66890     West End          
    ##  2 $1.00      Yes         59916     Strathcona        
    ##  3 $1.00      No          57042     Riley Park        
    ##  4 $1.00      No          57159     West Point Grey   
    ##  5 $2.00      No          51104     Fairview          
    ##  6 $2.00      No          60868     Downtown          
    ##  7 $2.00      No          60810     Downtown          
    ##  8 $2.00      No          60577     Downtown          
    ##  9 $4.00      No          52884     Fairview          
    ## 10 $2.00      No          66822     Downtown          
    ## 11 $2.00      No          66848     Downtown          
    ## 12 $2.00      No          66815     Downtown          
    ## 13 $2.00      Yes         66219     West End          
    ## 14 $1.00      No          52340     South Cambie      
    ## 15 $1.00      Yes         59929     Riley Park        
    ## 16 $4.00      No          54667     Kitsilano         
    ## 17 $4.00      No          50212     Fairview          
    ## 18 $4.00      No          51700     Fairview          
    ## 19 $4.00      No          51728     Fairview          
    ## 20 $1.00      No          52409     Fairview          
    ## 21 $5.00      No          52743     Fairview          
    ## 22 $2.00      No          52441     Fairview          
    ## 23 $3.00      No          65877     Downtown          
    ## 24 $3.00      No          54200     Kitsilano         
    ## 25 $3.00      No          54199     Kitsilano         
    ## 26 $4.00      No          52993     Fairview          
    ## 27 $4.00      No          52882     Fairview          
    ## 28 $1.00      No          54288     Fairview          
    ## 29 $1.00      No          56653     Riley Park        
    ## 30 $1.00      No          56212     Mount Pleasant    
    ## 31 $1.00      No          52094     Fairview          
    ## 32 $3.00      No          64215     West End          
    ## 33 $3.00      No          52796     Mount Pleasant    
    ## 34 $4.00      No          52546     Kitsilano         
    ## 35 $7.00      Yes         62948     Downtown          
    ## 36 $3.00      No          52252     Grandview-Woodland
    ## 37 $3.00      No          53695     Grandview-Woodland
    ## 38 $3.00      No          53724     Grandview-Woodland
    ## 39 $2.00      No          50270     Mount Pleasant    
    ## 40 $3.00      No          60595     Downtown          
    ## 41 $3.00      No          60287     Downtown          
    ## 42 $3.00      No          61008     Downtown          
    ## 43 $1.00      No          60737     Downtown          
    ## 44 $1.00      No          57165     Mount Pleasant    
    ## 45 $1.00      No          60569     Downtown          
    ## 46 $2.00      No          54318     Mount Pleasant    
    ## 47 $1.00      No          64907     Downtown          
    ## 48 $1.00      No          53635     Kitsilano         
    ## 49 $2.00      No          54812     Fairview          
    ## 50 $1.00      No          57777     Mount Pleasant    
    ## # … with 9,982 more rows

``` r
vancouver_trees %>%
  select(c(common_name, on_street, neighbourhood_name, height_range_id, date_planted)) %>%
  print(n = 50)
```

    ## # A tibble: 146,611 × 5
    ##    common_name                    on_street        neighbou…¹ heigh…² date_pla…³
    ##    <chr>                          <chr>            <chr>        <dbl> <date>    
    ##  1 BRANDON ELM                    W 58TH AV        MARPOLE          2 1999-01-13
    ##  2 JAPANESE ZELKOVA               W 58TH AV        MARPOLE          4 1996-05-31
    ##  3 JAPANESE SNOWBELL              WINDSOR ST       KENSINGTO…       3 1993-11-22
    ##  4 AUTUMN APPLAUSE ASH            E 39TH AV        KENSINGTO…       4 1996-04-29
    ##  5 HEDGE MAPLE                    WINDSOR ST       KENSINGTO…       2 1993-12-17
    ##  6 CHANTICLEER PEAR               W 61ST AV        MARPOLE          2 NA        
    ##  7 COLUMNAR NORWAY MAPLE          SHERBROOKE ST    KENSINGTO…       3 1993-12-16
    ##  8 COLUMNAR NORWAY MAPLE          SHERBROOKE ST    KENSINGTO…       3 1993-12-16
    ##  9 COLUMNAR NORWAY MAPLE          SHERBROOKE ST    KENSINGTO…       2 1993-12-16
    ## 10 AUTUMN APPLAUSE ASH            E 39TH AV        KENSINGTO…       2 1993-12-03
    ## 11 CRIMEAN LINDEN                 E 39TH AV        KENSINGTO…       2 1993-12-03
    ## 12 CRIMEAN LINDEN                 E 39TH AV        KENSINGTO…       5 1993-12-03
    ## 13 COLUMNAR NORWAY MAPLE          SELKIRK ST       OAKRIDGE         3 1993-12-15
    ## 14 ROSE OF SHARON                 E 16TH AV        MOUNT PLE…       2 1993-11-19
    ## 15 JAPANESE SNOWBELL              E 16TH AV        MOUNT PLE…       2 1993-11-19
    ## 16 JAPANESE SNOWBELL              WINDSOR ST       KENSINGTO…       2 1993-12-21
    ## 17 RAYWOOD ASH                    WINDSOR ST       KENSINGTO…       2 1993-12-20
    ## 18 HEDGE MAPLE                    WINDSOR ST       KENSINGTO…       2 1993-12-20
    ## 19 COLUMNAR NORWAY MAPLE          SELKIRK ST       OAKRIDGE         3 1993-12-15
    ## 20 COLUMNAR NORWAY MAPLE          SELKIRK ST       OAKRIDGE         2 1993-12-15
    ## 21 HEDGE MAPLE                    WINDSOR ST       KENSINGTO…       2 1993-12-15
    ## 22 COLUMNAR NORWAY MAPLE          HUDSON ST        OAKRIDGE         3 1993-12-09
    ## 23 AMERICAN SWEETGUM              CLARENDON ST     RENFREW-C…       2 1997-04-23
    ## 24 KWANZAN FLOWERING CHERRY       CAROLINA ST      RILEY PARK       2 NA        
    ## 25 KWANZAN FLOWERING CHERRY       CAROLINA ST      RILEY PARK       2 NA        
    ## 26 EUROPEAN HORNBEAM              SMITHE ST        DOWNTOWN         4 NA        
    ## 27 SAWTOOTH OAK                   INVERNESS ST     SUNSET           4 1998-02-11
    ## 28 SAWTOOTH OAK                   INVERNESS ST     SUNSET           4 1998-02-11
    ## 29 RED MAPLE                      CARRALL ST       DOWNTOWN         3 NA        
    ## 30 RED MAPLE                      CARRALL ST       DOWNTOWN         5 NA        
    ## 31 KWANZAN FLOWERING CHERRY       CAROLINA ST      RILEY PARK       2 NA        
    ## 32 KWANZAN FLOWERING CHERRY       CAROLINA ST      RILEY PARK       2 NA        
    ## 33 MAPLE SPECIES                  BALSAM ST        ARBUTUS-R…       2 NA        
    ## 34 NORWAY MAPLE                   WILLIAM ST       GRANDVIEW…       3 NA        
    ## 35 NORWAY MAPLE                   WILLIAM ST       GRANDVIEW…       3 NA        
    ## 36 NIGHT PURPLE LEAF PLUM         CYPRESS ST       KITSILANO        1 2000-01-21
    ## 37 ENGLISH HAWTHORN               NICOLA ST        WEST END         3 NA        
    ## 38 ENGLISH HAWTHORN               NICOLA ST        WEST END         3 NA        
    ## 39 ENGLISH HAWTHORN               NICOLA ST        WEST END         2 NA        
    ## 40 ENGLISH HAWTHORN               NICOLA ST        WEST END         3 NA        
    ## 41 JAPANESE SNOWBELL              MCRAE AV         SHAUGHNES…       2 1996-12-18
    ## 42 BRANDON ELM                    LARCH ST         KITSILANO        4 2000-01-21
    ## 43 BLACK LOCUST                   BROUGHTON ST     WEST END         2 1999-02-05
    ## 44 PERSIAN IRONWOOD               KITCHENER ST     HASTINGS-…       1 2016-04-20
    ## 45 JAPANESE DOGWOOD               W 57TH AV        KERRISDALE       2 1997-01-22
    ## 46 CHANTICLEER PEAR               W 12TH AV        WEST POIN…       2 1997-01-31
    ## 47 KOBUS MAGNOLIA                 COURTENAY ST     WEST POIN…       2 1997-01-23
    ## 48 FREEMAN'S S.S. MAPLE           BALSAM ST        KITSILANO        2 1997-03-20
    ## 49 KARPICK RED MAPLE              W 15TH AV        KITSILANO        4 1996-04-16
    ## 50 SILVER VARIEGATED NORWAY MAPLE TO BE DETERMINED MOUNT PLE…       4 NA        
    ## # … with 146,561 more rows, and abbreviated variable names ¹​neighbourhood_name,
    ## #   ²​height_range_id, ³​date_planted
…
To start exploring my data, I would like to know more about the ratio
between the number of storeys in a certain building and the number of
elevators in the same building. For this reason, I am creating a new
variable by using the function mutate(). I am calling the new variable
“ratio_elev_storeys”, which is the result of the number of storeys
divided by the number of elevators in each building in the dataset. I am
then selecting the new variable created and then everything else to be
able to immediately visualize the ratio in my dataset.

``` r
mutate(apt_buildings, ratio_elev_storeys = no_of_storeys/no_of_elevators) %>%
select(ratio_elev_storeys, everything())
```

    ## # A tibble: 3,455 × 38
    ##    ratio…¹    id air_c…² ameni…³ balco…⁴ barri…⁵ bike_…⁶ exter…⁷ fire_…⁸ garba…⁹
    ##      <dbl> <dbl> <chr>   <chr>   <chr>   <chr>   <chr>   <chr>   <chr>   <chr>  
    ##  1    5.67 10359 NONE    Outdoo… YES     YES     0 indo… NO      YES     YES    
    ##  2    4.67 10360 NONE    Outdoo… YES     NO      0 indo… NO      YES     YES    
    ##  3  Inf    10361 NONE    <NA>    YES     NO      Not Av… NO      YES     NO     
    ##  4    5    10362 NONE    <NA>    YES     YES     Not Av… YES     YES     NO     
    ##  5  Inf    10363 NONE    <NA>    NO      NO      12 ind… NO      YES     NO     
    ##  6  Inf    10364 NONE    <NA>    NO      NO      Not Av… <NA>    YES     NO     
    ##  7  Inf    10365 NONE    <NA>    NO      YES     Not Av… NO      YES     NO     
    ##  8    3.5  10366 CENTRA… Indoor… YES     NO      Not Av… NO      YES     YES    
    ##  9    8    10367 NONE    <NA>    YES     YES     0 indo… NO      YES     YES    
    ## 10    2    10368 NONE    Indoor… YES     YES     Not Av… NO      YES     NO     
    ## # … with 3,445 more rows, 28 more variables: heating_type <chr>,
    ## #   intercom <chr>, laundry_room <chr>, locker_or_storage_room <chr>,
    ## #   no_of_elevators <dbl>, parking_type <chr>, pets_allowed <chr>,
    ## #   prop_management_company_name <chr>, property_type <chr>, rsn <dbl>,
    ## #   separate_gas_meters <chr>, separate_hydro_meters <chr>,
    ## #   separate_water_meters <chr>, site_address <chr>, sprinkler_system <chr>,
    ## #   visitor_parking <chr>, ward <chr>, window_type <chr>, year_built <dbl>, …
…
    ## `summarise()` has grouped output by 'key'. You can override using the `.groups`
    ## argument.

``` r
missing.values
```

    ## # A tibble: 28 × 2
    ## # Groups:   key [28]
    ##    key                              num.missing
    ##    <chr>                                  <int>
    ##  1 amenities                               2518
    ##  2 prop_management_company_name            1363
    ##  3 parking_type                             350
    ##  4 no_barrier_free_accessible_units         154
    ##  5 no_of_accessible_parking_spaces          123
    ##  6 exterior_fire_escape                      95
    ##  7 non-smoking_building                      94
    ##  8 intercom                                  90
    ##  9 pets_allowed                              90
    ## 10 year_registered                           89
    ## # … with 18 more rows
…
