…
<!--------------------------- Start your work below --------------------------->

First, I will create a new dataset only considering my variables of
interest (\<8) and only considering observations after the year 1980.

``` r
apt_buildings_research <- as_tibble(apt_buildings) %>%
  filter(year_built > 1980) %>%
  select(year_built, balconies, barrier_free_accessibilty_entr, no_of_elevators, no_of_storeys, no_of_units, no_barrier_free_accessible_units, property_type)

print(apt_buildings_research)
```

    ## # A tibble: 393 × 8
    ##    year_built balconies barrier_free_a…¹ no_of…² no_of…³ no_of…⁴ no_ba…⁵ prope…⁶
    ##         <dbl> <chr>     <chr>              <dbl>   <dbl>   <dbl>   <dbl> <chr>  
    ##  1       1994 YES       YES                    3       6     106       4 SOCIAL…
    ##  2       2005 YES       NO                     2       9     116       0 PRIVATE
    ##  3       1992 YES       YES                    0       3      17       5 PRIVATE
    ##  4       2011 YES       YES                    2      10     153       2 PRIVATE
    ##  5       1984 NO        YES                    3      19     176       8 SOCIAL…
    ##  6       1995 YES       YES                    2      15     138       8 SOCIAL…
    ##  7       1994 NO        YES                    1       5      35       2 TCHC   
    ##  8       1994 YES       YES                    2       6      95       2 TCHC   
    ##  9       1986 YES       NO                     2      12     171       0 PRIVATE
    ## 10       1992 YES       YES                    1       6      16       0 SOCIAL…
    ## # … with 383 more rows, and abbreviated variable names
    ## #   ¹​barrier_free_accessibilty_entr, ²​no_of_elevators, ³​no_of_storeys,
    ## #   ⁴​no_of_units, ⁵​no_barrier_free_accessible_units, ⁶​property_type
…
First step: Following, I am creating a new database for both research
question 1 and 2.

``` r
apt_buildings_q1q2 <- as_tibble(apt_buildings) %>%
  select(year_built, no_of_storeys, no_of_units, property_type)

print(apt_buildings_q1q2)
```

    ## # A tibble: 3,455 × 4
    ##    year_built no_of_storeys no_of_units property_type
    ##         <dbl>         <dbl>       <dbl> <chr>        
    ##  1       1967            17         218 PRIVATE      
    ##  2       1970            14         206 PRIVATE      
    ##  3       1927             4          34 PRIVATE      
    ##  4       1959             5          42 PRIVATE      
    ##  5       1943             4          25 PRIVATE      
    ##  6       1952             4          34 PRIVATE      
    ##  7       1959             4          14 PRIVATE      
    ##  8       1971             7         105 PRIVATE      
    ##  9       1969            32         571 PRIVATE      
    ## 10       1972             4         171 TCHC         
    ## # … with 3,445 more rows

Second step: I am not interested in observations before 1980. I will
therefore filter by year and create a new tibble containing observations
starting from year 1980.

``` r
apt_buildings_q1q2_1980 <- as_tibble(apt_buildings) %>%
  filter(year_built > 1980) %>%
  select(year_built, no_of_storeys, no_of_units, property_type)

print(apt_buildings_q1q2_1980)
```

    ## # A tibble: 393 × 4
    ##    year_built no_of_storeys no_of_units property_type 
    ##         <dbl>         <dbl>       <dbl> <chr>         
    ##  1       1994             6         106 SOCIAL HOUSING
    ##  2       2005             9         116 PRIVATE       
    ##  3       1992             3          17 PRIVATE       
    ##  4       2011            10         153 PRIVATE       
    ##  5       1984            19         176 SOCIAL HOUSING
    ##  6       1995            15         138 SOCIAL HOUSING
    ##  7       1994             5          35 TCHC          
    ##  8       1994             6          95 TCHC          
    ##  9       1986            12         171 PRIVATE       
    ## 10       1992             6          16 SOCIAL HOUSING
    ## # … with 383 more rows

Third step: I want to order the variable “year_built” in ascendant order
and then also in descending order.

``` r
apt_buildings_q1q2_1980 %>%
  arrange(year_built)
```

    ## # A tibble: 393 × 4
    ##    year_built no_of_storeys no_of_units property_type 
    ##         <dbl>         <dbl>       <dbl> <chr>         
    ##  1       1981             8         139 TCHC          
    ##  2       1981             7         195 PRIVATE       
    ##  3       1981             7          53 SOCIAL HOUSING
    ##  4       1981            14         300 TCHC          
    ##  5       1981             7         247 TCHC          
    ##  6       1981            32         147 PRIVATE       
    ##  7       1981            15         266 TCHC          
    ##  8       1982            14         256 PRIVATE       
    ##  9       1982            10         174 SOCIAL HOUSING
    ## 10       1982             9         117 PRIVATE       
    ## # … with 383 more rows

``` r
apt_buildings_q1q2_1980 %>%
  arrange(desc(year_built))
```

    ## # A tibble: 393 × 4
    ##    year_built no_of_storeys no_of_units property_type 
    ##         <dbl>         <dbl>       <dbl> <chr>         
    ##  1       2019            36         466 PRIVATE       
    ##  2       2019            17         146 PRIVATE       
    ##  3       2019             4          30 SOCIAL HOUSING
    ##  4       2019            27         301 PRIVATE       
    ##  5       2019            27         235 PRIVATE       
    ##  6       2018            51         502 PRIVATE       
    ##  7       2018            43         369 PRIVATE       
    ##  8       2018             7          77 TCHC          
    ##  9       2018            31         369 PRIVATE       
    ## 10       2017             8          46 PRIVATE       
    ## # … with 383 more rows

I am now going to create a dataset to answer Research Question 1. This
will include 3 variables (year_built, no_of_storeys, no_of_units). This
time, I am using the function subset to drop one variable, namely the
variable “property_type”.

``` r
apt_buildings_q1 <- apt_buildings_q1q2 %>%
  subset(select = -c(property_type))

apt_buildings_q1
```

    ## # A tibble: 3,455 × 3
    ##    year_built no_of_storeys no_of_units
    ##         <dbl>         <dbl>       <dbl>
    ##  1       1967            17         218
    ##  2       1970            14         206
    ##  3       1927             4          34
    ##  4       1959             5          42
    ##  5       1943             4          25
    ##  6       1952             4          34
    ##  7       1959             4          14
    ##  8       1971             7         105
    ##  9       1969            32         571
    ## 10       1972             4         171
    ## # … with 3,445 more rows

I am not happy with the fact that my dataset includes years_built before
1980. To answer my research question, I am not interested in
observations after that year. Also, I am going to order observations in
ascendant order, both for the variable “year_built” and “no_of_units”.

``` r
apt_buildings_q1_1980 <- apt_buildings_q1 %>%
  filter(year_built > 1980) %>%
    arrange(year_built, no_of_units)

print(apt_buildings_q1_1980)
```

    ## # A tibble: 393 × 3
    ##    year_built no_of_storeys no_of_units
    ##         <dbl>         <dbl>       <dbl>
    ##  1       1981             7          53
    ##  2       1981             8         139
    ##  3       1981            32         147
    ##  4       1981             7         195
    ##  5       1981             7         247
    ##  6       1981            15         266
    ##  7       1981            14         300
    ##  8       1982             3          18
    ##  9       1982            11          60
    ## 10       1982             3          61
    ## # … with 383 more rows

Last but not least, I am going to use the same functions to create a
dataset that would help me answer Research Question 2.

``` r
apt_buildings_q2 <- apt_buildings_q1q2 %>%
  subset(select = -c(no_of_storeys, no_of_units))

apt_buildings_q2
```

    ## # A tibble: 3,455 × 2
    ##    year_built property_type
    ##         <dbl> <chr>        
    ##  1       1967 PRIVATE      
    ##  2       1970 PRIVATE      
    ##  3       1927 PRIVATE      
    ##  4       1959 PRIVATE      
    ##  5       1943 PRIVATE      
    ##  6       1952 PRIVATE      
    ##  7       1959 PRIVATE      
    ##  8       1971 PRIVATE      
    ##  9       1969 PRIVATE      
    ## 10       1972 TCHC         
    ## # … with 3,445 more rows

``` r
apt_buildings_q2_1980 <- apt_buildings_q2 %>%
  filter(year_built > 1980) %>%
    arrange(year_built)

print(apt_buildings_q2_1980)
```

    ## # A tibble: 393 × 2
    ##    year_built property_type 
    ##         <dbl> <chr>         
    ##  1       1981 TCHC          
    ##  2       1981 PRIVATE       
    ##  3       1981 SOCIAL HOUSING
    ##  4       1981 TCHC          
    ##  5       1981 TCHC          
    ##  6       1981 PRIVATE       
    ##  7       1981 TCHC          
    ##  8       1982 PRIVATE       
    ##  9       1982 SOCIAL HOUSING
    ## 10       1982 PRIVATE       
    ## # … with 383 more rows

``` r
apt_buildings_q2_1980 %>%
  group_by(property_type == "SOCIAL HOUSING")
```

    ## # A tibble: 393 × 3
    ## # Groups:   property_type == "SOCIAL HOUSING" [2]
    ##    year_built property_type  `property_type == "SOCIAL HOUSING"`
    ##         <dbl> <chr>          <lgl>                              
    ##  1       1981 TCHC           FALSE                              
    ##  2       1981 PRIVATE        FALSE                              
    ##  3       1981 SOCIAL HOUSING TRUE                               
    ##  4       1981 TCHC           FALSE                              
    ##  5       1981 TCHC           FALSE                              
    ##  6       1981 PRIVATE        FALSE                              
    ##  7       1981 TCHC           FALSE                              
    ##  8       1982 PRIVATE        FALSE                              
    ##  9       1982 SOCIAL HOUSING TRUE                               
    ## 10       1982 PRIVATE        FALSE                              
    ## # … with 383 more rows

Now, as my final operation, I am going to find the average of storeys
and the average of units built each year from 1980 to 2019. I will use
the functions summarize() and across(). I might want to plot this later,
since I think it would allow me to better visualize my data.

``` r
apt_buildings_q1_1980 %>% 
  group_by(year_built) %>% 
  summarise(across(c(no_of_storeys, no_of_units), mean))
```

    ## # A tibble: 38 × 3
    ##    year_built no_of_storeys no_of_units
    ##         <dbl>         <dbl>       <dbl>
    ##  1       1981         12.9        192. 
    ##  2       1982          9.65       147. 
    ##  3       1983          9.93       146. 
    ##  4       1984         12          156. 
    ##  5       1985          7.5         97.1
    ##  6       1986         11.4        155  
    ##  7       1987          8.92       117. 
    ##  8       1988          5.73        77.7
    ##  9       1989          6.64        90.4
    ## 10       1990          5.54        71.5
    ## # … with 28 more rows
…
I used the function fct_other to group “social housing” and “TCHC”
together. I did so because TCHC is also a type of social housing, so I
wanted to get a sense of how many private vs. social houses were built
in my selected year. This yields very interesting results, clearly
showing that more social housing was built in the past, while more
private housing is built now (2010 and 2019).

``` r
#Property type needs to be a character, otherwise code won't work

apt_buildings_new %>%
mutate(property_type=as.character(property_type))
```

    ## # A tibble: 28 × 4
    ##    year_built no_of_storeys no_of_units property_type 
    ##    <fct>              <dbl>       <dbl> <chr>         
    ##  1 1990                   3          15 PRIVATE       
    ##  2 1990                   6          75 SOCIAL HOUSING
    ##  3 2019                  36         466 PRIVATE       
    ##  4 2019                  17         146 PRIVATE       
    ##  5 1990                   7          73 TCHC          
    ##  6 2000                   7          25 TCHC          
    ##  7 1990                   9         207 TCHC          
    ##  8 1990                   3          10 PRIVATE       
    ##  9 2010                  22         332 PRIVATE       
    ## 10 2010                   7          74 PRIVATE       
    ## # … with 18 more rows
…
<!-------------------------- Start your work below ---------------------------->

``` r
output_exercise <- apt_buildings %>% 
group_by(year_built) %>% 
summarise (no_of_units_sd = sd(no_of_units, na.rm = TRUE)) %>%
print()
```

    ## # A tibble: 128 × 2
    ##    year_built no_of_units_sd
    ##         <dbl>          <dbl>
    ##  1       1805          NA   
    ##  2       1809          NA   
    ##  3       1838          NA   
    ##  4       1880          NA   
    ##  5       1885           6.36
    ##  6       1888          NA   
    ##  7       1890          NA   
    ##  8       1891          NA   
    ##  9       1895          NA   
    ## 10       1896          NA   
    ## # … with 118 more rows
…
