…
<!-------------------------- Start your work below ---------------------------->

I am now exploring the 4 datasets. To do so, I am using the print(),
glimpse(), dim(), and class() functions on all dataset. I want to see
the number of rows and columns, the variables in each dataset, and have
an idea of the overall structure of the data.

Here, I explore the apt_buildings dataset

``` r
print(apt_buildings)
```

    ## # A tibble: 3,455 × 37
    ##       id air_c…¹ ameni…² balco…³ barri…⁴ bike_…⁵ exter…⁶ fire_…⁷ garba…⁸ heati…⁹
    ##    <dbl> <chr>   <chr>   <chr>   <chr>   <chr>   <chr>   <chr>   <chr>   <chr>  
    ##  1 10359 NONE    Outdoo… YES     YES     0 indo… NO      YES     YES     HOT WA…
    ##  2 10360 NONE    Outdoo… YES     NO      0 indo… NO      YES     YES     HOT WA…
    ##  3 10361 NONE    <NA>    YES     NO      Not Av… NO      YES     NO      HOT WA…
    ##  4 10362 NONE    <NA>    YES     YES     Not Av… YES     YES     NO      HOT WA…
    ##  5 10363 NONE    <NA>    NO      NO      12 ind… NO      YES     NO      HOT WA…
    ##  6 10364 NONE    <NA>    NO      NO      Not Av… <NA>    YES     NO      HOT WA…
    ##  7 10365 NONE    <NA>    NO      YES     Not Av… NO      YES     NO      HOT WA…
    ##  8 10366 CENTRA… Indoor… YES     NO      Not Av… NO      YES     YES     HOT WA…
    ##  9 10367 NONE    <NA>    YES     YES     0 indo… NO      YES     YES     ELECTR…
    ## 10 10368 NONE    Indoor… YES     YES     Not Av… NO      YES     NO      HOT WA…
    ## # … with 3,445 more rows, 27 more variables: intercom <chr>,
    ## #   laundry_room <chr>, locker_or_storage_room <chr>, no_of_elevators <dbl>,
    ## #   parking_type <chr>, pets_allowed <chr>, prop_management_company_name <chr>,
    ## #   property_type <chr>, rsn <dbl>, separate_gas_meters <chr>,
    ## #   separate_hydro_meters <chr>, separate_water_meters <chr>,
    ## #   site_address <chr>, sprinkler_system <chr>, visitor_parking <chr>,
    ## #   ward <chr>, window_type <chr>, year_built <dbl>, year_registered <dbl>, …
…
    ## [1] 3455   37

``` r
class(apt_buildings)
```

    ## [1] "tbl_df"     "tbl"        "data.frame"

Here, I explore the building_permits dataset

``` r
print(building_permits)
```

    ## # A tibble: 20,680 × 14
    ##    permit_n…¹ issue_date proje…² type_…³ address proje…⁴ build…⁵ build…⁶ appli…⁷
    ##    <chr>      <date>       <dbl> <chr>   <chr>   <chr>   <chr>   <chr>   <chr>  
    ##  1 BP-2016-0… 2017-02-01  0      Salvag… 4378 W… <NA>    <NA>     <NA>   Raffae…
    ##  2 BU468090   2017-02-01  0      New Bu… 1111 R… <NA>    <NA>     <NA>   MAX KE…
    ##  3 DB-2016-0… 2017-02-01  3.5 e4 Additi… 3732 W… <NA>    <NA>     <NA>   Peter …
    ##  4 DB-2017-0… 2017-02-01  1.5 e4 Additi… 88 W P… <NA>    Mercur… "88 W … Aaron …
    ##  5 DB452250   2017-02-01  1.81e5 New Bu… 492 E … <NA>    082016… "3559 … John H…
    ##  6 BP-2016-0… 2017-02-02  0      Salvag… 3332 W… <NA>    <NA>     <NA>   Shalin…
    ##  7 BP-2016-0… 2017-02-02  1.5 e4 Demoli… 2873 W… <NA>    <NA>     <NA>   Mike C…
    ##  8 BP-2016-0… 2017-02-02  0      Salvag… 3579 E… <NA>    <NA>     <NA>   Ricci …
    ##  9 BP-2016-0… 2017-02-02  6.5 e7 New Bu… 620 CA… <NA>    <NA>     <NA>   David …
    ## 10 BP-2016-0… 2017-02-02  2.5 e4 Additi… 1868 W… <NA>    RenBui… "1868 … Daniel…
    ## # … with 20,670 more rows, 5 more variables: applicant_address <chr>,
    ## #   property_use <chr>, specific_use_category <chr>, year <dbl>, bi_id <dbl>,
    ## #   and abbreviated variable names ¹​permit_number, ²​project_value,
    ## #   ³​type_of_work, ⁴​project_description, ⁵​building_contractor,
    ## #   ⁶​building_contractor_address, ⁷​applicant
…
    ## [1] 20680    14

``` r
class(building_permits)
```

    ## [1] "spec_tbl_df" "tbl_df"      "tbl"         "data.frame"

Here, I explore the parking_meters dataset

``` r
print(parking_meters)
```

    ## # A tibble: 10,032 × 22
    ##    meter_head  r_mf_9a…¹ r_mf_…² r_sa_…³ r_sa_…⁴ r_su_…⁵ r_su_…⁶ rate_…⁷ time_…⁸
    ##    <chr>       <chr>     <chr>   <chr>   <chr>   <chr>   <chr>   <chr>   <chr>  
    ##  1 Twin        $2.00     $4.00   $2.00   $4.00   $2.00   $4.00   <NA>    METER …
    ##  2 Pay Station $1.00     $1.00   $1.00   $1.00   $1.00   $1.00   $ .50   METER …
    ##  3 Twin        $1.00     $1.00   $1.00   $1.00   $1.00   $1.00   <NA>    METER …
    ##  4 Single      $1.00     $1.00   $1.00   $1.00   $1.00   $1.00   <NA>    METER …
    ##  5 Twin        $2.00     $1.00   $2.00   $1.00   $2.00   $1.00   <NA>    METER …
    ##  6 Twin        $2.00     $1.00   $2.00   $1.00   $2.00   $1.00   <NA>    METER …
    ##  7 Twin        $2.00     $3.00   $2.00   $3.00   $2.00   $3.00   <NA>    METER …
    ##  8 Single      $2.00     $3.00   $2.00   $3.00   $2.00   $3.00   <NA>    METER …
    ##  9 Twin        $4.00     $1.00   $4.00   $1.00   $4.00   $1.00   <NA>    METER …
    ## 10 Twin        $2.00     $1.00   $2.00   $1.00   $2.00   $1.00   <NA>    METER …
    ## # … with 10,022 more rows, 13 more variables: t_mf_9a_6p <chr>,
    ## #   t_mf_6p_10 <chr>, t_sa_9a_6p <chr>, t_sa_6p_10 <chr>, t_su_9a_6p <chr>,
    ## #   t_su_6p_10 <chr>, time_misc <chr>, credit_card <chr>, pay_phone <chr>,
    ## #   longitude <dbl>, latitude <dbl>, geo_local_area <chr>, meter_id <chr>, and
    ## #   abbreviated variable names ¹​r_mf_9a_6p, ²​r_mf_6p_10, ³​r_sa_9a_6p,
    ## #   ⁴​r_sa_6p_10, ⁵​r_su_9a_6p, ⁶​r_su_6p_10, ⁷​rate_misc, ⁸​time_in_effect
…
    ## [1] 10032    22

``` r
class(parking_meters)
```

    ## [1] "tbl_df"     "tbl"        "data.frame"

Here, I explore the vancouver_trees dataset

``` r
print(vancouver_trees)
```

    ## # A tibble: 146,611 × 20
    ##    tree_id civic_number std_st…¹ genus…² speci…³ culti…⁴ commo…⁵ assig…⁶ root_…⁷
    ##      <dbl>        <dbl> <chr>    <chr>   <chr>   <chr>   <chr>   <chr>   <chr>  
    ##  1  149556          494 W 58TH … ULMUS   AMERIC… BRANDON BRANDO… N       N      
    ##  2  149563          450 W 58TH … ZELKOVA SERRATA <NA>    JAPANE… N       N      
    ##  3  149579         4994 WINDSOR… STYRAX  JAPONI… <NA>    JAPANE… N       N      
    ##  4  149590          858 E 39TH … FRAXIN… AMERIC… AUTUMN… AUTUMN… Y       N      
    ##  5  149604         5032 WINDSOR… ACER    CAMPES… <NA>    HEDGE … N       N      
    ##  6  149616          585 W 61ST … PYRUS   CALLER… CHANTI… CHANTI… N       N      
    ##  7  149617         4909 SHERBRO… ACER    PLATAN… COLUMN… COLUMN… N       N      
    ##  8  149618         4925 SHERBRO… ACER    PLATAN… COLUMN… COLUMN… N       N      
    ##  9  149619         4969 SHERBRO… ACER    PLATAN… COLUMN… COLUMN… N       N      
    ## 10  149625          720 E 39TH … FRAXIN… AMERIC… AUTUMN… AUTUMN… N       N      
    ## # … with 146,601 more rows, 11 more variables: plant_area <chr>,
    ## #   on_street_block <dbl>, on_street <chr>, neighbourhood_name <chr>,
    ## #   street_side_name <chr>, height_range_id <dbl>, diameter <dbl>, curb <chr>,
    ## #   date_planted <date>, longitude <dbl>, latitude <dbl>, and abbreviated
    ## #   variable names ¹​std_street, ²​genus_name, ³​species_name, ⁴​cultivar_name,
    ## #   ⁵​common_name, ⁶​assigned, ⁷​root_barrier
…
1.3 Now that you’ve explored the 4 datasets that you were initially most
interested in, let’s narrow it down to 2. What lead you to choose these
2? Briefly explain your choices below, and feel free to include any code
in your explanation.

``` r
apt_buildings %>%
  select(c(heating_type, bike_parking, no_of_storeys, no_of_units, parking_type)) %>%
  print(n = 50)
```

    ## # A tibble: 3,455 × 5
    ##    heating_type   bike_parking                           no_of…¹ no_of…² parki…³
    ##    <chr>          <chr>                                    <dbl>   <dbl> <chr>  
    ##  1 HOT WATER      0 indoor parking spots and 10 outdoor…      17     218 Underg…
    ##  2 HOT WATER      0 indoor parking spots and 34 outdoor…      14     206 Underg…
    ##  3 HOT WATER      Not Available                                4      34 Underg…
    ##  4 HOT WATER      Not Available                                5      42 Ground…
    ##  5 HOT WATER      12 indoor parking spots and 0 outdoor…       4      25 Underg…
    ##  6 HOT WATER      Not Available                                4      34 Ground…
    ##  7 HOT WATER      Not Available                                4      14 Surfac…
    ##  8 HOT WATER      Not Available                                7     105 Underg…
    ##  9 ELECTRIC       0 indoor parking spots and 15 outdoor…      32     571 Underg…
    ## 10 HOT WATER      Not Available                                4     171 Surfac…
    ## 11 HOT WATER      Not Available                                4      26 Underg…
    ## 12 HOT WATER      Not Available                                7     169 Ground…
    ## 13 HOT WATER      Not Available                                5      87 Surfac…
    ## 14 HOT WATER      0 indoor parking spots and 0 outdoor …       6      79 Ground…
    ## 15 HOT WATER      Not Available                                7      71 Ground…
    ## 16 HOT WATER      Not Available                                3      12 Ground…
    ## 17 HOT WATER      Not Available                               10     105 Underg…
    ## 18 HOT WATER      Not Available                                3      12 Ground…
    ## 19 HOT WATER      Not Available                               12     235 Underg…
    ## 20 HOT WATER      0 indoor parking spots and 7 outdoor …       4      44 Underg…
    ## 21 HOT WATER      Not Available                               18     287 Underg…
    ## 22 HOT WATER      Not Available                                3      15 Ground…
    ## 23 HOT WATER      Not Available                                7      61 Underg…
    ## 24 HOT WATER      8 indoor parking spots and 0 outdoor …       3      11 Surfac…
    ## 25 HOT WATER      Not Available                               15     146 Underg…
    ## 26 HOT WATER      Not Available                               12      88 Underg…
    ## 27 FORCED AIR GAS Not Available                                6     106 Underg…
    ## 28 HOT WATER      12 indoor parking spots and 90 outdoo…       9     116 Underg…
    ## 29 HOT WATER      Not Available                                8      77 Underg…
    ## 30 HOT WATER      Not Available                               20     161 Underg…
    ## 31 HOT WATER      0 indoor parking spots and 18 outdoor…       3      17 Ground…
    ## 32 HOT WATER      Not Available                                3      11 Ground…
    ## 33 HOT WATER      75 indoor parking spots and 0 outdoor…      19     244 Underg…
    ## 34 HOT WATER      71 indoor parking spots and 0 outdoor…      10     153 Underg…
    ## 35 HOT WATER      36 indoor parking spots and 0 outdoor…      10     117 Underg…
    ## 36 ELECTRIC       Not Available                               16     255 Underg…
    ## 37 HOT WATER      Not Available                               21     237 Underg…
    ## 38 HOT WATER      Not Available                               14     301 Surfac…
    ## 39 HOT WATER      Not Available                                4      39 Surfac…
    ## 40 HOT WATER      Not Available                                3      17 Surfac…
    ## 41 <NA>           indoor parking spots and  outdoor par…       4      25 <NA>   
    ## 42 FORCED AIR GAS 16 indoor parking spots and 16 outdoo…       3      15 Surfac…
    ## 43 HOT WATER      0 indoor parking spots and 9 outdoor …       3      22 Ground…
    ## 44 HOT WATER      Not Available                               24     184 Underg…
    ## 45 HOT WATER      Not Available                                4      25 Underg…
    ## 46 HOT WATER      0 indoor parking spots and 4 outdoor …       3      24 Ground…
    ## 47 HOT WATER      indoor parking spots and  outdoor par…      13     207 Underg…
    ## 48 HOT WATER      Not Available                                7      58 Surfac…
    ## 49 ELECTRIC       Not Available                               19     176 Underg…
    ## 50 HOT WATER      Not Available                                4      40 Carpor…
    ## # … with 3,405 more rows, and abbreviated variable names ¹​no_of_storeys,
    ## #   ²​no_of_units, ³​parking_type

``` r
building_permits %>%
  select(c(project_value, type_of_work, property_use, specific_use_category)) %>% 
  print(n = 50)
```

    ## # A tibble: 20,680 × 4
    ##    project_value type_of_work                property_use                speci…¹
    ##            <dbl> <chr>                       <chr>                       <chr>  
    ##  1             0 Salvage and Abatement       Dwelling Uses               One-Fa…
    ##  2             0 New Building                Dwelling Uses               Multip…
    ##  3         35000 Addition / Alteration       Dwelling Uses               One-Fa…
    ##  4         15000 Addition / Alteration       Office Uses,Retail Uses     Genera…
    ##  5        181178 New Building                Dwelling Uses               Lanewa…
    ##  6             0 Salvage and Abatement       Dwelling Uses               One-fa…
    ##  7         15000 Demolition / Deconstruction Dwelling Uses               One-Fa…
    ##  8             0 Salvage and Abatement       Dwelling Uses               One-Fa…
    ##  9      65000000 New Building                Dwelling Uses,Retail Uses   Multip…
    ## 10         25000 Addition / Alteration       Dwelling Uses               Multip…
    ## 11         25750 Addition / Alteration       Dwelling Uses               Multip…
    ## 12         44000 Addition / Alteration       Service Uses                Repair…
    ## 13        200000 Addition / Alteration       Dwelling Uses               One-fa…
    ## 14          4800 Addition / Alteration       Dwelling Uses               One-Fa…
    ## 15         50000 Addition / Alteration       Service Uses                Animal…
    ## 16        160000 Addition / Alteration       Institutional Uses          Hospit…
    ## 17         60000 Addition / Alteration       Dwelling Uses               One-Fa…
    ## 18       1043345 New Building                Dwelling Uses               One-fa…
    ## 19         15000 Demolition / Deconstruction Dwelling Uses               One-Fa…
    ## 20             0 Salvage and Abatement       Dwelling Uses               One-Fa…
    ## 21             0 Salvage and Abatement       Dwelling Uses               One-fa…
    ## 22             0 Salvage and Abatement       Dwelling Uses               One-fa…
    ## 23             0 Salvage and Abatement       Dwelling Uses               One-fa…
    ## 24             0 Salvage and Abatement       Dwelling Uses               One-Fa…
    ## 25             0 Salvage and Abatement       Dwelling Uses               One-fa…
    ## 26             0 Salvage and Abatement       Dwelling Uses               One-Fa…
    ## 27             0 Salvage and Abatement       Dwelling Uses               One-fa…
    ## 28         15000 Demolition / Deconstruction Dwelling Uses               One-Fa…
    ## 29             0 Salvage and Abatement       Dwelling Uses               One-fa…
    ## 30             0 Salvage and Abatement       Dwelling Uses               One-fa…
    ## 31         13000 Addition / Alteration       Service Uses                Motor …
    ## 32         25000 Addition / Alteration       Dwelling Uses               Multip…
    ## 33         70000 Addition / Alteration       Dwelling Uses               Multip…
    ## 34        100000 Addition / Alteration       Dwelling Uses               Multip…
    ## 35        100000 Addition / Alteration       Dwelling Uses               Two-Fa…
    ## 36         15000 Demolition / Deconstruction Dwelling Uses               One-Fa…
    ## 37        189900 New Building                Dwelling Uses               Lanewa…
    ## 38         25000 Addition / Alteration       Service Uses                Beauty…
    ## 39        250000 Addition / Alteration       Service Uses                Motor …
    ## 40             0 Salvage and Abatement       Dwelling Uses               One-fa…
    ## 41             0 Salvage and Abatement       Dwelling Uses               One-fa…
    ## 42             0 Salvage and Abatement       Dwelling Uses               One-fa…
    ## 43             0 Salvage and Abatement       Dwelling Uses               One-Fa…
    ## 44          5000 Addition / Alteration       Transportation and Storage… Storag…
    ## 45        238700 New Building                Dwelling Uses               Lanewa…
    ## 46       3380000 Addition / Alteration       Dwelling Uses               One-Fa…
    ## 47            NA Salvage and Abatement       Dwelling Uses               One-fa…
    ## 48             0 Salvage and Abatement       Dwelling Uses               One-Fa…
    ## 49             0 Salvage and Abatement       Dwelling Uses               One-Fa…
    ## 50             0 Salvage and Abatement       Dwelling Uses               One-fa…
    ## # … with 20,630 more rows, and abbreviated variable name ¹​specific_use_category
…
